{
  "states": ["open", "resolved", "reopened", "in progress", "closed", "eden"],
  "edges": [
    {
      "from": "eden",
      "to": "open",
      "name": "create",
      "actions": []
    },
    {
    "from": "open",
    "to": "in progress",
    "name": "start",
    "actions": []
  }, {
    "from": "open",
    "to": "resolved",
    "name": "resolve",
    "actions": []
  }, {
    "from": "in progress",
    "to": "open",
    "name": "stop",
    "actions": []
  }, {
    "from": "resolved",
    "to": "closed",
    "name": "close",
    "actions": []
  }, {
    "from": "resolved",
    "to": "reopened",
    "name": "reopen",
    "actions": []
  },{
    "from": "reopened",
    "to": "resolved",
    "name": "resolve",
    "actions": []
  }, {
    "from": "reopened",
    "to": "in progress",
    "name": "start",
    "actions": []
  }, {
    "from": "reopened",
    "to": "closed",
    "name": "close",
    "actions": []
  },{
    "from": "in progress",
    "to": "resolved",
    "name": "resolve",
    "actions": []
  }, {
    "from": "in progress",
    "to": "closed",
    "name": "close",
    "actions": []
  }, {
    "from": "closed",
    "to": "reopened",
    "name": "reopen",
    "actions": []
  }, {
    "from": "open",
    "to": "closed",
    "name": "close",
    "actions": []
  }]
}